%YAML 1.1
%TAG !u! tag:unity3d.com,2011:
--- !u!114 &11400000
MonoBehaviour:
  m_ObjectHideFlags: 0
  m_CorrespondingSourceObject: {fileID: 0}
  m_PrefabInstance: {fileID: 0}
  m_PrefabAsset: {fileID: 0}
  m_GameObject: {fileID: 0}
  m_Enabled: 1
  m_EditorHideFlags: 0
  m_Script: {fileID: 11500000, guid: 9033865767959b749a2efd333e3edc9c, type: 3}
  m_Name: ProjectPreferences
  m_EditorClassIdentifier: 
  boolPreferences:
    keys:
    - MixedRealityToolkit_Editor_RunOptimalConfig
    - _MixedRealityToolkit_Editor_IgnoreSettingsPrompts
    values: 0100
  intPreferences:
    keys:
    - _MixedRealityToolkit_Editor_ConfiguratorState
    values: 00000000
  floatPreferences:
    keys: []
    values: []
  stringPreferences:
    keys:
    - BuildDeployWindow_AppLauncherModelLocation
    values:
    - 
