%YAML 1.1
%TAG !u! tag:unity3d.com,2011:
--- !u!114 &-543711129329800739
MonoBehaviour:
  m_ObjectHideFlags: 11
  m_CorrespondingSourceObject: {fileID: 0}
  m_PrefabInstance: {fileID: 0}
  m_PrefabAsset: {fileID: 0}
  m_GameObject: {fileID: 0}
  m_Enabled: 1
  m_EditorHideFlags: 0
  m_Script: {fileID: 11500000, guid: d0353a89b1f911e48b9e16bdc9f2e058, type: 3}
  m_Name: 
  m_EditorClassIdentifier: 
  version: 7
--- !u!21 &2100000
Material:
  serializedVersion: 8
  m_ObjectHideFlags: 0
  m_CorrespondingSourceObject: {fileID: 0}
  m_PrefabInstance: {fileID: 0}
  m_PrefabAsset: {fileID: 0}
  m_Name: red
  m_Shader: {fileID: 4800000, guid: 933532a4fcc9baf4fa0491de14d08ed7, type: 3}
  m_Parent: {fileID: 0}
  m_ModifiedSerializedProperties: 0
  m_ValidKeywords:
  - _EMISSION
  m_InvalidKeywords: []
  m_LightmapFlags: 1
  m_EnableInstancingVariants: 0
  m_DoubleSidedGI: 0
  m_CustomRenderQueue: -1
  stringTagMap:
    RenderType: Opaque
  disabledShaderPasses: []
  m_LockedProperties: 
  m_SavedProperties:
    serializedVersion: 3
    m_TexEnvs:
    - _BaseMap:
        m_Texture: {fileID: 0}
        m_Scale: {x: 1, y: 1}
        m_Offset: {x: 0, y: 0}
    - _BumpMap:
        m_Texture: {fileID: 0}
        m_Scale: {x: 1, y: 1}
        m_Offset: {x: 0, y: 0}
    - _DetailAlbedoMap:
        m_Texture: {fileID: 0}
        m_Scale: {x: 1, y: 1}
        m_Offset: {x: 0, y: 0}
    - _DetailMask:
        m_Texture: {fileID: 0}
        m_Scale: {x: 1, y: 1}
        m_Offset: {x: 0, y: 0}
    - _DetailNormalMap:
        m_Texture: {fileID: 0}
        m_Scale: {x: 1, y: 1}
        m_Offset: {x: 0, y: 0}
    - _EmissionMap:
        m_Texture: {fileID: 0}
        m_Scale: {x: 1, y: 1}
        m_Offset: {x: 0, y: 0}
    - _MainTex:
        m_Texture: {fileID: 0}
        m_Scale: {x: 1, y: 1}
        m_Offset: {x: 0, y: 0}
    - _MetallicGlossMap:
        m_Texture: {fileID: 0}
        m_Scale: {x: 1, y: 1}
        m_Offset: {x: 0, y: 0}
    - _NormalMap:
        m_Texture: {fileID: 0}
        m_Scale: {x: 1, y: 1}
        m_Offset: {x: 0, y: 0}
    - _OcclusionMap:
        m_Texture: {fileID: 0}
        m_Scale: {x: 1, y: 1}
        m_Offset: {x: 0, y: 0}
    - _ParallaxMap:
        m_Texture: {fileID: 0}
        m_Scale: {x: 1, y: 1}
        m_Offset: {x: 0, y: 0}
    - _SpecGlossMap:
        m_Texture: {fileID: 0}
        m_Scale: {x: 1, y: 1}
        m_Offset: {x: 0, y: 0}
    - unity_Lightmaps:
        m_Texture: {fileID: 0}
        m_Scale: {x: 1, y: 1}
        m_Offset: {x: 0, y: 0}
    - unity_LightmapsInd:
        m_Texture: {fileID: 0}
        m_Scale: {x: 1, y: 1}
        m_Offset: {x: 0, y: 0}
    - unity_ShadowMasks:
        m_Texture: {fileID: 0}
        m_Scale: {x: 1, y: 1}
        m_Offset: {x: 0, y: 0}
    m_Ints: []
    m_Floats:
    - _AlbedoAlphaMode: 0
    - _AlphaClip: 0
    - _AlphaToMask: 0
    - _Blend: 0
    - _BlendModePreserveSpecular: 1
    - _BlendOp: 0
    - _BorderLight: 0
    - _BorderLightOpaque: 0
    - _BorderLightUsesHoverColor: 1
    - _BorderMinValue: 0.1
    - _BorderWidth: 0.1
    - _BumpScale: 1
    - _ClearCoatMask: 0
    - _ClearCoatSmoothness: 0
    - _ClippingPlane: 0
    - _ClippingPlaneBorder: 0
    - _ClippingPlaneBorderWidth: 0.025
    - _ColorWriteMask: 15
    - _Cull: 2
    - _CullMode: 2
    - _CustomMode: 0
    - _Cutoff: 0.5
    - _DetailAlbedoMapScale: 1
    - _DetailNormalMapScale: 1
    - _DirectionalLight: 1
    - _DstBlend: 0
    - _DstBlendAlpha: 0
    - _EdgeSmoothingValue: 0.002
    - _EmissionScaleUI: 0
    - _EnableEmission: 0
    - _EnableHoverColorOpaqueOverride: 0
    - _EnableHoverColorOverride: 0
    - _EnableNormalMap: 0
    - _EnvironmentColorIntensity: 0.5
    - _EnvironmentColorThreshold: 1.5
    - _EnvironmentColoring: 0
    - _EnvironmentReflections: 1
    - _FadeBeginDistance: 0.85
    - _FadeCompleteDistance: 0.5
    - _GlossMapScale: 1
    - _Glossiness: 0
    - _GlossyReflections: 1
    - _HoverLight: 0
    - _HoverLightOpaque: 0
    - _InnerGlow: 0
    - _Lightmapping: 1
    - _Metallic: 0
    - _Mode: 0
    - _NearPlaneFade: 0
    - _OcclusionStrength: 1
    - _Parallax: 0.02
    - _QueueOffset: 0
    - _ReceiveShadows: 1
    - _Reflections: 0
    - _Refraction: 0
    - _RefractiveIndex: 1.1
    - _RenderQueueOverride: -1
    - _RimLight: 0
    - _RimPower: 0.25
    - _RoundCornerMargin: 0
    - _RoundCornerRadius: 0.25
    - _RoundCorners: 0
    - _Smoothness: 0.5
    - _SmoothnessTextureChannel: 0
    - _SpecularHighlights: 1
    - _SrcBlend: 1
    - _SrcBlendAlpha: 1
    - _Surface: 0
    - _UVSec: 0
    - _WorkflowMode: 1
    - _ZTest: 4
    - _ZWrite: 1
    m_Colors:
    - _BaseColor: {r: 0.9811321, g: 0, b: 0, a: 1}
    - _ClipPlane: {r: 0, g: 1, b: 0, a: 0}
    - _ClippingPlaneBorderColor: {r: 1, g: 0.2, b: 0, a: 1}
    - _Color: {r: 0.9811321, g: 0, b: 0, a: 1}
    - _EmissionColor: {r: 0, g: 0, b: 0, a: 0}
    - _EmissionColorUI: {r: 1, g: 1, b: 1, a: 1}
    - _EmissiveColor: {r: 0, g: 0, b: 0, a: 1}
    - _EnvironmentColorX: {r: 1, g: 0, b: 0, a: 1}
    - _EnvironmentColorY: {r: 0, g: 1, b: 0, a: 1}
    - _EnvironmentColorZ: {r: 0, g: 0, b: 1, a: 1}
    - _HoverColorOpaqueOverride: {r: 1, g: 1, b: 1, a: 1}
    - _HoverColorOverride: {r: 1, g: 1, b: 1, a: 1}
    - _InnerGlowColor: {r: 1, g: 1, b: 1, a: 0.75}
    - _RimColor: {r: 0.5, g: 0.5, b: 0.5, a: 1}
    - _SpecColor: {r: 0.19999996, g: 0.19999996, b: 0.19999996, a: 1}
  m_BuildTextureStacks: []
