%YAML 1.1
%TAG !u! tag:unity3d.com,2011:
--- !u!1 &6946300374975165725
GameObject:
  m_ObjectHideFlags: 0
  m_CorrespondingSourceObject: {fileID: 0}
  m_PrefabInstance: {fileID: 0}
  m_PrefabAsset: {fileID: 0}
  serializedVersion: 6
  m_Component:
  - component: {fileID: 6946300374975165727}
  - component: {fileID: 6946300374975165724}
  m_Layer: 0
  m_Name: tube
  m_TagString: Untagged
  m_Icon: {fileID: 0}
  m_NavMeshLayer: 0
  m_StaticEditorFlags: 0
  m_IsActive: 1
--- !u!4 &6946300374975165727
Transform:
  m_ObjectHideFlags: 0
  m_CorrespondingSourceObject: {fileID: 0}
  m_PrefabInstance: {fileID: 0}
  m_PrefabAsset: {fileID: 0}
  m_GameObject: {fileID: 6946300374975165725}
  m_LocalRotation: {x: 0, y: 0, z: 0, w: 1}
  m_LocalPosition: {x: 0, y: 0, z: 0}
  m_LocalScale: {x: 1, y: 1, z: 1}
  m_ConstrainProportionsScale: 0
  m_Children: []
  m_Father: {fileID: 0}
  m_RootOrder: 0
  m_LocalEulerAnglesHint: {x: 0, y: 0, z: 0}
--- !u!114 &6946300374975165724
MonoBehaviour:
  m_ObjectHideFlags: 0
  m_CorrespondingSourceObject: {fileID: 0}
  m_PrefabInstance: {fileID: 0}
  m_PrefabAsset: {fileID: 0}
  m_GameObject: {fileID: 6946300374975165725}
  m_Enabled: 1
  m_EditorHideFlags: 0
  m_Script: {fileID: 11500000, guid: f1639232f3a686640a236a1bb268d5f5, type: 3}
  m_Name: 
  m_EditorClassIdentifier: 
  dequeSize: 10000
  decimation: 0.5
  scale: 1
  radius: 0.001
  resolution: 3
  material: {fileID: 2100000, guid: c6cfe1b1d624d4744aa7c96a96469081, type: 2}
  colorStart: {r: 0.32968223, g: 1, b: 0, a: 1}
  colorEnd: {r: 1, g: 0.006289184, b: 0.006289184, a: 1}
  numberOfThreads: 4
  path: 
  data: {fileID: 4900000, guid: f6cb3d483426d4e4ea6a8b70be1951bd, type: 3}
  loading: {fileID: 0}
  loadOnStart: 1
  fbrRebuild: 0
