%YAML 1.1
%TAG !u! tag:unity3d.com,2011:
--- !u!114 &11400000
MonoBehaviour:
  m_ObjectHideFlags: 0
  m_CorrespondingSourceObject: {fileID: 0}
  m_PrefabInstance: {fileID: 0}
  m_PrefabAsset: {fileID: 0}
  m_GameObject: {fileID: 0}
  m_Enabled: 1
  m_EditorHideFlags: 0
  m_Script: {fileID: 11500000, guid: b3d881e962d099f4a8eb492ef7e9a8c0, type: 3}
  m_Name: OculusPlatformSettings
  m_EditorClassIdentifier: 
  ovrAppID: 5553102591479873
  ovrMobileAppID: 5553102591479873
  ovrUseStandalonePlatform: 1
