%YAML 1.1
%TAG !u! tag:unity3d.com,2011:
--- !u!1 &3885287149013961678
GameObject:
  m_ObjectHideFlags: 0
  m_CorrespondingSourceObject: {fileID: 0}
  m_PrefabInstance: {fileID: 0}
  m_PrefabAsset: {fileID: 0}
  serializedVersion: 6
  m_Component:
  - component: {fileID: 2150932971217955896}
  - component: {fileID: 1636068748620013076}
  - component: {fileID: 3916499598230535553}
  - component: {fileID: 2572137253673619811}
  - component: {fileID: 37536896331466004}
  m_Layer: 0
  m_Name: ValueRed
  m_TagString: Untagged
  m_Icon: {fileID: 0}
  m_NavMeshLayer: 0
  m_StaticEditorFlags: 0
  m_IsActive: 1
--- !u!224 &2150932971217955896
RectTransform:
  m_ObjectHideFlags: 0
  m_CorrespondingSourceObject: {fileID: 0}
  m_PrefabInstance: {fileID: 0}
  m_PrefabAsset: {fileID: 0}
  m_GameObject: {fileID: 3885287149013961678}
  m_LocalRotation: {x: 0, y: 0, z: 0, w: 1}
  m_LocalPosition: {x: 0, y: 0, z: 0}
  m_LocalScale: {x: 0.0010000002, y: 0.0010000002, z: 0.0009999999}
  m_ConstrainProportionsScale: 0
  m_Children: []
  m_Father: {fileID: 8027688136874688321}
  m_RootOrder: 1
  m_LocalEulerAnglesHint: {x: 0, y: 0, z: 0}
  m_AnchorMin: {x: 0.5, y: 0.5}
  m_AnchorMax: {x: 0.5, y: 0.5}
  m_AnchoredPosition: {x: -0.06, y: 0}
  m_SizeDelta: {x: 60, y: 5}
  m_Pivot: {x: 0.5, y: 0.5}
--- !u!23 &1636068748620013076
MeshRenderer:
  m_ObjectHideFlags: 0
  m_CorrespondingSourceObject: {fileID: 0}
  m_PrefabInstance: {fileID: 0}
  m_PrefabAsset: {fileID: 0}
  m_GameObject: {fileID: 3885287149013961678}
  m_Enabled: 1
  m_CastShadows: 0
  m_ReceiveShadows: 0
  m_DynamicOccludee: 1
  m_StaticShadowCaster: 0
  m_MotionVectors: 1
  m_LightProbeUsage: 1
  m_ReflectionProbeUsage: 1
  m_RayTracingMode: 2
  m_RayTraceProcedural: 0
  m_RenderingLayerMask: 4294967295
  m_RendererPriority: 0
  m_Materials:
  - {fileID: 21340371490990018, guid: afc8299d5d5bbd440a0616c8ecbc7217, type: 2}
  m_StaticBatchInfo:
    firstSubMesh: 0
    subMeshCount: 0
  m_StaticBatchRoot: {fileID: 0}
  m_ProbeAnchor: {fileID: 0}
  m_LightProbeVolumeOverride: {fileID: 0}
  m_ScaleInLightmap: 1
  m_ReceiveGI: 1
  m_PreserveUVs: 0
  m_IgnoreNormalsForChartDetection: 0
  m_ImportantGI: 0
  m_StitchLightmapSeams: 0
  m_SelectedEditorRenderState: 3
  m_MinimumChartSize: 4
  m_AutoUVMaxDistance: 0.5
  m_AutoUVMaxAngle: 89
  m_LightmapParameters: {fileID: 0}
  m_SortingLayerID: 0
  m_SortingLayer: 0
  m_SortingOrder: 0
  m_AdditionalVertexStreams: {fileID: 0}
--- !u!222 &3916499598230535553
CanvasRenderer:
  m_ObjectHideFlags: 0
  m_CorrespondingSourceObject: {fileID: 0}
  m_PrefabInstance: {fileID: 0}
  m_PrefabAsset: {fileID: 0}
  m_GameObject: {fileID: 3885287149013961678}
  m_CullTransparentMesh: 0
--- !u!114 &2572137253673619811
MonoBehaviour:
  m_ObjectHideFlags: 0
  m_CorrespondingSourceObject: {fileID: 0}
  m_PrefabInstance: {fileID: 0}
  m_PrefabAsset: {fileID: 0}
  m_GameObject: {fileID: 3885287149013961678}
  m_Enabled: 1
  m_EditorHideFlags: 0
  m_Script: {fileID: 11500000, guid: 9541d86e2fd84c1d9990edf0852d74ab, type: 3}
  m_Name: 
  m_EditorClassIdentifier: 
  m_Material: {fileID: 0}
  m_Color: {r: 1, g: 1, b: 1, a: 1}
  m_RaycastTarget: 1
  m_RaycastPadding: {x: 0, y: 0, z: 0, w: 0}
  m_Maskable: 1
  m_OnCullStateChanged:
    m_PersistentCalls:
      m_Calls: []
  m_text: 0.50
  m_isRightToLeft: 0
  m_fontAsset: {fileID: 11400000, guid: afc8299d5d5bbd440a0616c8ecbc7217, type: 2}
  m_sharedMaterial: {fileID: 21340371490990018, guid: afc8299d5d5bbd440a0616c8ecbc7217, type: 2}
  m_fontSharedMaterials: []
  m_fontMaterial: {fileID: 0}
  m_fontMaterials: []
  m_fontColor32:
    serializedVersion: 2
    rgba: 4294967295
  m_fontColor: {r: 1, g: 1, b: 1, a: 1}
  m_enableVertexGradient: 0
  m_colorMode: 3
  m_fontColorGradient:
    topLeft: {r: 1, g: 1, b: 1, a: 1}
    topRight: {r: 1, g: 1, b: 1, a: 1}
    bottomLeft: {r: 1, g: 1, b: 1, a: 1}
    bottomRight: {r: 1, g: 1, b: 1, a: 1}
  m_fontColorGradientPreset: {fileID: 0}
  m_spriteAsset: {fileID: 0}
  m_tintAllSprites: 0
  m_StyleSheet: {fileID: 0}
  m_TextStyleHashCode: -1183493901
  m_overrideHtmlColors: 0
  m_faceColor:
    serializedVersion: 2
    rgba: 4294967295
  m_fontSize: 220
  m_fontSizeBase: 220
  m_fontWeight: 400
  m_enableAutoSizing: 0
  m_fontSizeMin: 18
  m_fontSizeMax: 72
  m_fontStyle: 0
  m_HorizontalAlignment: 4
  m_VerticalAlignment: 4096
  m_textAlignment: 65535
  m_characterSpacing: 0
  m_wordSpacing: 0
  m_lineSpacing: 1
  m_lineSpacingMax: 0
  m_paragraphSpacing: 0
  m_charWidthMaxAdj: 0
  m_enableWordWrapping: 1
  m_wordWrappingRatios: 0.4
  m_overflowMode: 0
  m_linkedTextComponent: {fileID: 0}
  parentLinkedComponent: {fileID: 0}
  m_enableKerning: 1
  m_enableExtraPadding: 0
  checkPaddingRequired: 0
  m_isRichText: 1
  m_parseCtrlCharacters: 1
  m_isOrthographic: 0
  m_isCullingEnabled: 0
  m_horizontalMapping: 0
  m_verticalMapping: 0
  m_uvLineOffset: 0
  m_geometrySortingOrder: 0
  m_IsTextObjectScaleStatic: 0
  m_VertexBufferAutoSizeReduction: 1
  m_useMaxVisibleDescender: 1
  m_pageToDisplay: 1
  m_margin: {x: 0, y: 0, z: 0, w: 0}
  m_isUsingLegacyAnimationComponent: 0
  m_isVolumetricText: 0
  _SortingLayer: 0
  _SortingLayerID: 0
  _SortingOrder: 0
  m_hasFontAssetChanged: 0
  m_renderer: {fileID: 1636068748620013076}
  m_maskType: 0
--- !u!114 &37536896331466004
MonoBehaviour:
  m_ObjectHideFlags: 0
  m_CorrespondingSourceObject: {fileID: 0}
  m_PrefabInstance: {fileID: 0}
  m_PrefabAsset: {fileID: 0}
  m_GameObject: {fileID: 3885287149013961678}
  m_Enabled: 1
  m_EditorHideFlags: 0
  m_Script: {fileID: 11500000, guid: 31ea53b1e6b6323429b8364a6d87beca, type: 3}
  m_Name: 
  m_EditorClassIdentifier: 
  textMesh: {fileID: 2572137253673619811}
  factor: 1
--- !u!1 &7359583924918067704
GameObject:
  m_ObjectHideFlags: 0
  m_CorrespondingSourceObject: {fileID: 0}
  m_PrefabInstance: {fileID: 0}
  m_PrefabAsset: {fileID: 0}
  serializedVersion: 6
  m_Component:
  - component: {fileID: 2287485319926575610}
  - component: {fileID: 8267460405194499903}
  - component: {fileID: 5288945777131558232}
  - component: {fileID: 2614987282379537833}
  m_Layer: 0
  m_Name: TitleRed
  m_TagString: Untagged
  m_Icon: {fileID: 0}
  m_NavMeshLayer: 0
  m_StaticEditorFlags: 0
  m_IsActive: 1
--- !u!224 &2287485319926575610
RectTransform:
  m_ObjectHideFlags: 0
  m_CorrespondingSourceObject: {fileID: 0}
  m_PrefabInstance: {fileID: 0}
  m_PrefabAsset: {fileID: 0}
  m_GameObject: {fileID: 7359583924918067704}
  m_LocalRotation: {x: 0, y: 0, z: 0, w: 1}
  m_LocalPosition: {x: 0, y: 0, z: 0}
  m_LocalScale: {x: 0.003205001, y: 0.003205001, z: 0.003205}
  m_ConstrainProportionsScale: 0
  m_Children: []
  m_Father: {fileID: 8027688136874688321}
  m_RootOrder: 2
  m_LocalEulerAnglesHint: {x: 0, y: 0, z: 0}
  m_AnchorMin: {x: 0.5, y: 0.5}
  m_AnchorMax: {x: 0.5, y: 0.5}
  m_AnchoredPosition: {x: -0.142, y: 0.024}
  m_SizeDelta: {x: 20, y: 5}
  m_Pivot: {x: 0.5, y: 0.5}
--- !u!23 &8267460405194499903
MeshRenderer:
  m_ObjectHideFlags: 0
  m_CorrespondingSourceObject: {fileID: 0}
  m_PrefabInstance: {fileID: 0}
  m_PrefabAsset: {fileID: 0}
  m_GameObject: {fileID: 7359583924918067704}
  m_Enabled: 1
  m_CastShadows: 0
  m_ReceiveShadows: 0
  m_DynamicOccludee: 1
  m_StaticShadowCaster: 0
  m_MotionVectors: 1
  m_LightProbeUsage: 1
  m_ReflectionProbeUsage: 1
  m_RayTracingMode: 2
  m_RayTraceProcedural: 0
  m_RenderingLayerMask: 1
  m_RendererPriority: 0
  m_Materials:
  - {fileID: 21340371490990018, guid: afc8299d5d5bbd440a0616c8ecbc7217, type: 2}
  m_StaticBatchInfo:
    firstSubMesh: 0
    subMeshCount: 0
  m_StaticBatchRoot: {fileID: 0}
  m_ProbeAnchor: {fileID: 0}
  m_LightProbeVolumeOverride: {fileID: 0}
  m_ScaleInLightmap: 1
  m_ReceiveGI: 1
  m_PreserveUVs: 0
  m_IgnoreNormalsForChartDetection: 0
  m_ImportantGI: 0
  m_StitchLightmapSeams: 0
  m_SelectedEditorRenderState: 3
  m_MinimumChartSize: 4
  m_AutoUVMaxDistance: 0.5
  m_AutoUVMaxAngle: 89
  m_LightmapParameters: {fileID: 0}
  m_SortingLayerID: 0
  m_SortingLayer: 0
  m_SortingOrder: 0
  m_AdditionalVertexStreams: {fileID: 0}
--- !u!222 &5288945777131558232
CanvasRenderer:
  m_ObjectHideFlags: 0
  m_CorrespondingSourceObject: {fileID: 0}
  m_PrefabInstance: {fileID: 0}
  m_PrefabAsset: {fileID: 0}
  m_GameObject: {fileID: 7359583924918067704}
  m_CullTransparentMesh: 0
--- !u!114 &2614987282379537833
MonoBehaviour:
  m_ObjectHideFlags: 0
  m_CorrespondingSourceObject: {fileID: 0}
  m_PrefabInstance: {fileID: 0}
  m_PrefabAsset: {fileID: 0}
  m_GameObject: {fileID: 7359583924918067704}
  m_Enabled: 1
  m_EditorHideFlags: 0
  m_Script: {fileID: 11500000, guid: 9541d86e2fd84c1d9990edf0852d74ab, type: 3}
  m_Name: 
  m_EditorClassIdentifier: 
  m_Material: {fileID: 0}
  m_Color: {r: 1, g: 1, b: 1, a: 1}
  m_RaycastTarget: 1
  m_RaycastPadding: {x: 0, y: 0, z: 0, w: 0}
  m_Maskable: 1
  m_OnCullStateChanged:
    m_PersistentCalls:
      m_Calls: []
  m_text: 'Shape

'
  m_isRightToLeft: 0
  m_fontAsset: {fileID: 11400000, guid: afc8299d5d5bbd440a0616c8ecbc7217, type: 2}
  m_sharedMaterial: {fileID: 21340371490990018, guid: afc8299d5d5bbd440a0616c8ecbc7217, type: 2}
  m_fontSharedMaterials: []
  m_fontMaterial: {fileID: 0}
  m_fontMaterials: []
  m_fontColor32:
    serializedVersion: 2
    rgba: 4294967295
  m_fontColor: {r: 1, g: 1, b: 1, a: 1}
  m_enableVertexGradient: 0
  m_colorMode: 3
  m_fontColorGradient:
    topLeft: {r: 1, g: 1, b: 1, a: 1}
    topRight: {r: 1, g: 1, b: 1, a: 1}
    bottomLeft: {r: 1, g: 1, b: 1, a: 1}
    bottomRight: {r: 1, g: 1, b: 1, a: 1}
  m_fontColorGradientPreset: {fileID: 0}
  m_spriteAsset: {fileID: 0}
  m_tintAllSprites: 0
  m_StyleSheet: {fileID: 0}
  m_TextStyleHashCode: -1183493901
  m_overrideHtmlColors: 0
  m_faceColor:
    serializedVersion: 2
    rgba: 4294967295
  m_fontSize: 43.62
  m_fontSizeBase: 43.62
  m_fontWeight: 400
  m_enableAutoSizing: 0
  m_fontSizeMin: 18
  m_fontSizeMax: 72
  m_fontStyle: 0
  m_HorizontalAlignment: 4
  m_VerticalAlignment: 256
  m_textAlignment: 65535
  m_characterSpacing: 0
  m_wordSpacing: 0
  m_lineSpacing: 0
  m_lineSpacingMax: 0
  m_paragraphSpacing: 0
  m_charWidthMaxAdj: 0
  m_enableWordWrapping: 1
  m_wordWrappingRatios: 0.4
  m_overflowMode: 0
  m_linkedTextComponent: {fileID: 0}
  parentLinkedComponent: {fileID: 0}
  m_enableKerning: 1
  m_enableExtraPadding: 0
  checkPaddingRequired: 0
  m_isRichText: 1
  m_parseCtrlCharacters: 1
  m_isOrthographic: 0
  m_isCullingEnabled: 0
  m_horizontalMapping: 0
  m_verticalMapping: 0
  m_uvLineOffset: 0
  m_geometrySortingOrder: 0
  m_IsTextObjectScaleStatic: 0
  m_VertexBufferAutoSizeReduction: 1
  m_useMaxVisibleDescender: 1
  m_pageToDisplay: 1
  m_margin: {x: 0, y: 0, z: -24.667788, w: 0}
  m_isUsingLegacyAnimationComponent: 0
  m_isVolumetricText: 0
  _SortingLayer: 0
  _SortingLayerID: 0
  _SortingOrder: 0
  m_hasFontAssetChanged: 0
  m_renderer: {fileID: 8267460405194499903}
  m_maskType: 0
--- !u!1001 &725067077010882844
PrefabInstance:
  m_ObjectHideFlags: 0
  serializedVersion: 2
  m_Modification:
    serializedVersion: 3
    m_TransformParent: {fileID: 0}
    m_Modifications:
    - target: {fileID: 6475316257701582328, guid: 1093263a89abe47499cccf7dcb08effb, type: 3}
      propertyPath: m_LocalScale.x
      value: 0.035028275
      objectReference: {fileID: 0}
    - target: {fileID: 6475316257701582328, guid: 1093263a89abe47499cccf7dcb08effb, type: 3}
      propertyPath: m_LocalScale.y
      value: 0.12931916
      objectReference: {fileID: 0}
    - target: {fileID: 7307063429480177090, guid: 1093263a89abe47499cccf7dcb08effb, type: 3}
      propertyPath: m_LocalPosition.x
      value: 0
      objectReference: {fileID: 0}
    - target: {fileID: 7307063429480177090, guid: 1093263a89abe47499cccf7dcb08effb, type: 3}
      propertyPath: m_LocalPosition.y
      value: -0.105000004
      objectReference: {fileID: 0}
    - target: {fileID: 7307063429480177090, guid: 1093263a89abe47499cccf7dcb08effb, type: 3}
      propertyPath: m_LocalRotation.x
      value: 0.7071068
      objectReference: {fileID: 0}
    - target: {fileID: 7307063429480177090, guid: 1093263a89abe47499cccf7dcb08effb, type: 3}
      propertyPath: m_LocalRotation.y
      value: -0
      objectReference: {fileID: 0}
    - target: {fileID: 7307063429529462948, guid: 1093263a89abe47499cccf7dcb08effb, type: 3}
      propertyPath: m_LocalPosition.x
      value: 0
      objectReference: {fileID: 0}
    - target: {fileID: 7307063429529462948, guid: 1093263a89abe47499cccf7dcb08effb, type: 3}
      propertyPath: m_LocalPosition.y
      value: -0.084
      objectReference: {fileID: 0}
    - target: {fileID: 7307063429529462948, guid: 1093263a89abe47499cccf7dcb08effb, type: 3}
      propertyPath: m_LocalRotation.x
      value: 0.7071068
      objectReference: {fileID: 0}
    - target: {fileID: 7307063429529462948, guid: 1093263a89abe47499cccf7dcb08effb, type: 3}
      propertyPath: m_LocalRotation.y
      value: -0
      objectReference: {fileID: 0}
    - target: {fileID: 7307063429783115059, guid: 1093263a89abe47499cccf7dcb08effb, type: 3}
      propertyPath: m_LocalPosition.x
      value: 0
      objectReference: {fileID: 0}
    - target: {fileID: 7307063429783115059, guid: 1093263a89abe47499cccf7dcb08effb, type: 3}
      propertyPath: m_LocalPosition.y
      value: 0.084
      objectReference: {fileID: 0}
    - target: {fileID: 7307063429783115059, guid: 1093263a89abe47499cccf7dcb08effb, type: 3}
      propertyPath: m_LocalRotation.x
      value: -0.7071068
      objectReference: {fileID: 0}
    - target: {fileID: 7307063429783115059, guid: 1093263a89abe47499cccf7dcb08effb, type: 3}
      propertyPath: m_LocalRotation.y
      value: -0
      objectReference: {fileID: 0}
    - target: {fileID: 7307063429800576361, guid: 1093263a89abe47499cccf7dcb08effb, type: 3}
      propertyPath: m_LocalPosition.x
      value: 0
      objectReference: {fileID: 0}
    - target: {fileID: 7307063429800576361, guid: 1093263a89abe47499cccf7dcb08effb, type: 3}
      propertyPath: m_LocalPosition.y
      value: -0.126
      objectReference: {fileID: 0}
    - target: {fileID: 7307063429800576361, guid: 1093263a89abe47499cccf7dcb08effb, type: 3}
      propertyPath: m_LocalRotation.x
      value: 0.7071068
      objectReference: {fileID: 0}
    - target: {fileID: 7307063429800576361, guid: 1093263a89abe47499cccf7dcb08effb, type: 3}
      propertyPath: m_LocalRotation.y
      value: -0
      objectReference: {fileID: 0}
    - target: {fileID: 7307063429986533656, guid: 1093263a89abe47499cccf7dcb08effb, type: 3}
      propertyPath: m_LocalPosition.x
      value: 0
      objectReference: {fileID: 0}
    - target: {fileID: 7307063429986533656, guid: 1093263a89abe47499cccf7dcb08effb, type: 3}
      propertyPath: m_LocalPosition.y
      value: 0.041999996
      objectReference: {fileID: 0}
    - target: {fileID: 7307063429986533656, guid: 1093263a89abe47499cccf7dcb08effb, type: 3}
      propertyPath: m_LocalRotation.x
      value: -0.7071068
      objectReference: {fileID: 0}
    - target: {fileID: 7307063429986533656, guid: 1093263a89abe47499cccf7dcb08effb, type: 3}
      propertyPath: m_LocalRotation.y
      value: -0
      objectReference: {fileID: 0}
    - target: {fileID: 7307063430008138807, guid: 1093263a89abe47499cccf7dcb08effb, type: 3}
      propertyPath: m_LocalScale.x
      value: 0.52982
      objectReference: {fileID: 0}
    - target: {fileID: 7307063430048244991, guid: 1093263a89abe47499cccf7dcb08effb, type: 3}
      propertyPath: m_LocalPosition.x
      value: 0
      objectReference: {fileID: 0}
    - target: {fileID: 7307063430048244991, guid: 1093263a89abe47499cccf7dcb08effb, type: 3}
      propertyPath: m_LocalPosition.y
      value: 0.06299999
      objectReference: {fileID: 0}
    - target: {fileID: 7307063430048244991, guid: 1093263a89abe47499cccf7dcb08effb, type: 3}
      propertyPath: m_LocalRotation.x
      value: -0.7071068
      objectReference: {fileID: 0}
    - target: {fileID: 7307063430048244991, guid: 1093263a89abe47499cccf7dcb08effb, type: 3}
      propertyPath: m_LocalRotation.y
      value: -0
      objectReference: {fileID: 0}
    - target: {fileID: 7307063430134822103, guid: 1093263a89abe47499cccf7dcb08effb, type: 3}
      propertyPath: m_LocalPosition.x
      value: 0
      objectReference: {fileID: 0}
    - target: {fileID: 7307063430134822103, guid: 1093263a89abe47499cccf7dcb08effb, type: 3}
      propertyPath: m_LocalRotation.w
      value: 0.7071068
      objectReference: {fileID: 0}
    - target: {fileID: 7307063430134822103, guid: 1093263a89abe47499cccf7dcb08effb, type: 3}
      propertyPath: m_LocalRotation.y
      value: 0
      objectReference: {fileID: 0}
    - target: {fileID: 7307063430134822103, guid: 1093263a89abe47499cccf7dcb08effb, type: 3}
      propertyPath: m_LocalRotation.z
      value: 0.7071068
      objectReference: {fileID: 0}
    - target: {fileID: 7307063430401729064, guid: 1093263a89abe47499cccf7dcb08effb, type: 3}
      propertyPath: m_LocalPosition.x
      value: 0
      objectReference: {fileID: 0}
    - target: {fileID: 7307063430401729064, guid: 1093263a89abe47499cccf7dcb08effb, type: 3}
      propertyPath: m_LocalPosition.y
      value: -0.063
      objectReference: {fileID: 0}
    - target: {fileID: 7307063430401729064, guid: 1093263a89abe47499cccf7dcb08effb, type: 3}
      propertyPath: m_LocalRotation.x
      value: 0.7071068
      objectReference: {fileID: 0}
    - target: {fileID: 7307063430401729064, guid: 1093263a89abe47499cccf7dcb08effb, type: 3}
      propertyPath: m_LocalRotation.y
      value: -0
      objectReference: {fileID: 0}
    - target: {fileID: 7307063430409858799, guid: 1093263a89abe47499cccf7dcb08effb, type: 3}
      propertyPath: m_LocalPosition.x
      value: 0
      objectReference: {fileID: 0}
    - target: {fileID: 7307063430409858799, guid: 1093263a89abe47499cccf7dcb08effb, type: 3}
      propertyPath: m_LocalPosition.y
      value: -0.0000000027939677
      objectReference: {fileID: 0}
    - target: {fileID: 7307063430409858799, guid: 1093263a89abe47499cccf7dcb08effb, type: 3}
      propertyPath: m_LocalRotation.w
      value: 1
      objectReference: {fileID: 0}
    - target: {fileID: 7307063430409858799, guid: 1093263a89abe47499cccf7dcb08effb, type: 3}
      propertyPath: m_LocalRotation.x
      value: -0
      objectReference: {fileID: 0}
    - target: {fileID: 7307063430409858799, guid: 1093263a89abe47499cccf7dcb08effb, type: 3}
      propertyPath: m_LocalRotation.y
      value: -0
      objectReference: {fileID: 0}
    - target: {fileID: 7307063430500970307, guid: 1093263a89abe47499cccf7dcb08effb, type: 3}
      propertyPath: m_LocalPosition.x
      value: 0
      objectReference: {fileID: 0}
    - target: {fileID: 7307063430500970307, guid: 1093263a89abe47499cccf7dcb08effb, type: 3}
      propertyPath: m_LocalPosition.y
      value: 0.020999998
      objectReference: {fileID: 0}
    - target: {fileID: 7307063430500970307, guid: 1093263a89abe47499cccf7dcb08effb, type: 3}
      propertyPath: m_LocalRotation.x
      value: -0.7071068
      objectReference: {fileID: 0}
    - target: {fileID: 7307063430500970307, guid: 1093263a89abe47499cccf7dcb08effb, type: 3}
      propertyPath: m_LocalRotation.y
      value: -0
      objectReference: {fileID: 0}
    - target: {fileID: 7307063430561165473, guid: 1093263a89abe47499cccf7dcb08effb, type: 3}
      propertyPath: layout
      value: 3
      objectReference: {fileID: 0}
    - target: {fileID: 7307063430561165473, guid: 1093263a89abe47499cccf7dcb08effb, type: 3}
      propertyPath: cellHeight
      value: 0.021
      objectReference: {fileID: 0}
    - target: {fileID: 7307063430561165473, guid: 1093263a89abe47499cccf7dcb08effb, type: 3}
      propertyPath: nodeList.Array.size
      value: 11
      objectReference: {fileID: 0}
    - target: {fileID: 7307063430561165486, guid: 1093263a89abe47499cccf7dcb08effb, type: 3}
      propertyPath: m_LocalPosition.y
      value: 0
      objectReference: {fileID: 0}
    - target: {fileID: 7307063430561165486, guid: 1093263a89abe47499cccf7dcb08effb, type: 3}
      propertyPath: m_LocalRotation.w
      value: 1
      objectReference: {fileID: 0}
    - target: {fileID: 7307063430561165486, guid: 1093263a89abe47499cccf7dcb08effb, type: 3}
      propertyPath: m_LocalRotation.y
      value: 0
      objectReference: {fileID: 0}
    - target: {fileID: 7307063430561165487, guid: 1093263a89abe47499cccf7dcb08effb, type: 3}
      propertyPath: m_IsActive
      value: 0
      objectReference: {fileID: 0}
    - target: {fileID: 7307063430618434848, guid: 1093263a89abe47499cccf7dcb08effb, type: 3}
      propertyPath: sliderAxis
      value: 1
      objectReference: {fileID: 0}
    - target: {fileID: 7307063430618434848, guid: 1093263a89abe47499cccf7dcb08effb, type: 3}
      propertyPath: sliderValue
      value: 0.5
      objectReference: {fileID: 0}
    - target: {fileID: 7307063430618434848, guid: 1093263a89abe47499cccf7dcb08effb, type: 3}
      propertyPath: snapToPosition
      value: 1
      objectReference: {fileID: 0}
    - target: {fileID: 7307063430618434848, guid: 1093263a89abe47499cccf7dcb08effb, type: 3}
      propertyPath: sliderEndDistance
      value: 0.06762034
      objectReference: {fileID: 0}
    - target: {fileID: 7307063430618434848, guid: 1093263a89abe47499cccf7dcb08effb, type: 3}
      propertyPath: sliderEndPosition.x
      value: 0.06597928
      objectReference: {fileID: 0}
    - target: {fileID: 7307063430618434848, guid: 1093263a89abe47499cccf7dcb08effb, type: 3}
      propertyPath: sliderStartDistance
      value: -0.06763374
      objectReference: {fileID: 0}
    - target: {fileID: 7307063430618434848, guid: 1093263a89abe47499cccf7dcb08effb, type: 3}
      propertyPath: sliderStepDivisions
      value: 5
      objectReference: {fileID: 0}
    - target: {fileID: 7307063430618434848, guid: 1093263a89abe47499cccf7dcb08effb, type: 3}
      propertyPath: sliderStartPosition.x
      value: -0.06602519
      objectReference: {fileID: 0}
    - target: {fileID: 7307063430618434848, guid: 1093263a89abe47499cccf7dcb08effb, type: 3}
      propertyPath: useSliderStepDivisions
      value: 1
      objectReference: {fileID: 0}
    - target: {fileID: 7307063430618434848, guid: 1093263a89abe47499cccf7dcb08effb, type: 3}
      propertyPath: OnHoverEntered.m_PersistentCalls.m_Calls.Array.size
      value: 1
      objectReference: {fileID: 0}
    - target: {fileID: 7307063430618434848, guid: 1093263a89abe47499cccf7dcb08effb, type: 3}
      propertyPath: OnStartRunning.m_PersistentCalls.m_Calls.Array.size
      value: 1
      objectReference: {fileID: 0}
    - target: {fileID: 7307063430618434848, guid: 1093263a89abe47499cccf7dcb08effb, type: 3}
      propertyPath: OnValueUpdated.m_PersistentCalls.m_Calls.Array.size
      value: 2
      objectReference: {fileID: 0}
    - target: {fileID: 7307063430618434848, guid: 1093263a89abe47499cccf7dcb08effb, type: 3}
      propertyPath: OnHoverEntered.m_PersistentCalls.m_Calls.Array.data[0].m_Mode
      value: 5
      objectReference: {fileID: 0}
    - target: {fileID: 7307063430618434848, guid: 1093263a89abe47499cccf7dcb08effb, type: 3}
      propertyPath: OnStartRunning.m_PersistentCalls.m_Calls.Array.data[0].m_Mode
      value: 0
      objectReference: {fileID: 0}
    - target: {fileID: 7307063430618434848, guid: 1093263a89abe47499cccf7dcb08effb, type: 3}
      propertyPath: OnValueUpdated.m_PersistentCalls.m_Calls.Array.data[0].m_Mode
      value: 0
      objectReference: {fileID: 0}
    - target: {fileID: 7307063430618434848, guid: 1093263a89abe47499cccf7dcb08effb, type: 3}
      propertyPath: OnValueUpdated.m_PersistentCalls.m_Calls.Array.data[1].m_Mode
      value: 0
      objectReference: {fileID: 0}
    - target: {fileID: 7307063430618434848, guid: 1093263a89abe47499cccf7dcb08effb, type: 3}
      propertyPath: OnHoverEntered.m_PersistentCalls.m_Calls.Array.data[0].m_Target
      value: 
      objectReference: {fileID: 8027688134963140085}
    - target: {fileID: 7307063430618434848, guid: 1093263a89abe47499cccf7dcb08effb, type: 3}
      propertyPath: OnStartRunning.m_PersistentCalls.m_Calls.Array.data[0].m_Target
      value: 
      objectReference: {fileID: 0}
    - target: {fileID: 7307063430618434848, guid: 1093263a89abe47499cccf7dcb08effb, type: 3}
      propertyPath: OnValueUpdated.m_PersistentCalls.m_Calls.Array.data[0].m_Target
      value: 
      objectReference: {fileID: 37536896331466004}
    - target: {fileID: 7307063430618434848, guid: 1093263a89abe47499cccf7dcb08effb, type: 3}
      propertyPath: OnHoverEntered.m_PersistentCalls.m_Calls.Array.data[0].m_CallState
      value: 2
      objectReference: {fileID: 0}
    - target: {fileID: 7307063430618434848, guid: 1093263a89abe47499cccf7dcb08effb, type: 3}
      propertyPath: OnStartRunning.m_PersistentCalls.m_Calls.Array.data[0].m_CallState
      value: 2
      objectReference: {fileID: 0}
    - target: {fileID: 7307063430618434848, guid: 1093263a89abe47499cccf7dcb08effb, type: 3}
      propertyPath: OnValueUpdated.m_PersistentCalls.m_Calls.Array.data[0].m_CallState
      value: 2
      objectReference: {fileID: 0}
    - target: {fileID: 7307063430618434848, guid: 1093263a89abe47499cccf7dcb08effb, type: 3}
      propertyPath: OnValueUpdated.m_PersistentCalls.m_Calls.Array.data[1].m_CallState
      value: 2
      objectReference: {fileID: 0}
    - target: {fileID: 7307063430618434848, guid: 1093263a89abe47499cccf7dcb08effb, type: 3}
      propertyPath: OnHoverEntered.m_PersistentCalls.m_Calls.Array.data[0].m_MethodName
      value: SetTrigger
      objectReference: {fileID: 0}
    - target: {fileID: 7307063430618434848, guid: 1093263a89abe47499cccf7dcb08effb, type: 3}
      propertyPath: OnStartRunning.m_PersistentCalls.m_Calls.Array.data[0].m_MethodName
      value: OnSliderUpdated
      objectReference: {fileID: 0}
    - target: {fileID: 7307063430618434848, guid: 1093263a89abe47499cccf7dcb08effb, type: 3}
      propertyPath: OnValueUpdated.m_PersistentCalls.m_Calls.Array.data[0].m_MethodName
      value: OnSliderUpdated
      objectReference: {fileID: 0}
    - target: {fileID: 7307063430618434848, guid: 1093263a89abe47499cccf7dcb08effb, type: 3}
      propertyPath: OnValueUpdated.m_PersistentCalls.m_Calls.Array.data[1].m_MethodName
      value: OnSliderUpdatedShape
      objectReference: {fileID: 0}
    - target: {fileID: 7307063430618434848, guid: 1093263a89abe47499cccf7dcb08effb, type: 3}
      propertyPath: OnValueUpdated.m_PersistentCalls.m_Calls.Array.data[0].m_TargetAssemblyTypeName
      value: VFXStyleText, Assembly-CSharp
      objectReference: {fileID: 0}
    - target: {fileID: 7307063430618434848, guid: 1093263a89abe47499cccf7dcb08effb, type: 3}
      propertyPath: OnValueUpdated.m_PersistentCalls.m_Calls.Array.data[1].m_TargetAssemblyTypeName
      value: VFXStyleSliders, Assembly-CSharp
      objectReference: {fileID: 0}
    - target: {fileID: 7307063430618434848, guid: 1093263a89abe47499cccf7dcb08effb, type: 3}
      propertyPath: OnHoverEntered.m_PersistentCalls.m_Calls.Array.data[0].m_Arguments.m_StringArgument
      value: Hover
      objectReference: {fileID: 0}
    - target: {fileID: 7307063430618434848, guid: 1093263a89abe47499cccf7dcb08effb, type: 3}
      propertyPath: OnHoverEntered.m_PersistentCalls.m_Calls.Array.data[0].m_Arguments.m_ObjectArgumentAssemblyTypeName
      value: UnityEngine.Object, UnityEngine
      objectReference: {fileID: 0}
    - target: {fileID: 7307063430618434848, guid: 1093263a89abe47499cccf7dcb08effb, type: 3}
      propertyPath: OnStartRunning.m_PersistentCalls.m_Calls.Array.data[0].m_Arguments.m_ObjectArgumentAssemblyTypeName
      value: UnityEngine.Object, UnityEngine
      objectReference: {fileID: 0}
    - target: {fileID: 7307063430618434848, guid: 1093263a89abe47499cccf7dcb08effb, type: 3}
      propertyPath: OnValueUpdated.m_PersistentCalls.m_Calls.Array.data[0].m_Arguments.m_ObjectArgumentAssemblyTypeName
      value: UnityEngine.Object, UnityEngine
      objectReference: {fileID: 0}
    - target: {fileID: 7307063430618434848, guid: 1093263a89abe47499cccf7dcb08effb, type: 3}
      propertyPath: OnValueUpdated.m_PersistentCalls.m_Calls.Array.data[1].m_Arguments.m_ObjectArgumentAssemblyTypeName
      value: UnityEngine.Object, UnityEngine
      objectReference: {fileID: 0}
    - target: {fileID: 7307063430618434851, guid: 1093263a89abe47499cccf7dcb08effb, type: 3}
      propertyPath: m_RootOrder
      value: -1
      objectReference: {fileID: 0}
    - target: {fileID: 7307063430618434851, guid: 1093263a89abe47499cccf7dcb08effb, type: 3}
      propertyPath: m_LocalScale.x
      value: 2
      objectReference: {fileID: 0}
    - target: {fileID: 7307063430618434851, guid: 1093263a89abe47499cccf7dcb08effb, type: 3}
      propertyPath: m_LocalScale.y
      value: 2
      objectReference: {fileID: 0}
    - target: {fileID: 7307063430618434851, guid: 1093263a89abe47499cccf7dcb08effb, type: 3}
      propertyPath: m_LocalScale.z
      value: 2
      objectReference: {fileID: 0}
    - target: {fileID: 7307063430618434851, guid: 1093263a89abe47499cccf7dcb08effb, type: 3}
      propertyPath: m_LocalPosition.x
      value: -0.6365
      objectReference: {fileID: 0}
    - target: {fileID: 7307063430618434851, guid: 1093263a89abe47499cccf7dcb08effb, type: 3}
      propertyPath: m_LocalPosition.y
      value: -0.00630003
      objectReference: {fileID: 0}
    - target: {fileID: 7307063430618434851, guid: 1093263a89abe47499cccf7dcb08effb, type: 3}
      propertyPath: m_LocalPosition.z
      value: 0.7639999
      objectReference: {fileID: 0}
    - target: {fileID: 7307063430618434851, guid: 1093263a89abe47499cccf7dcb08effb, type: 3}
      propertyPath: m_LocalRotation.w
      value: 1
      objectReference: {fileID: 0}
    - target: {fileID: 7307063430618434851, guid: 1093263a89abe47499cccf7dcb08effb, type: 3}
      propertyPath: m_LocalRotation.x
      value: -0
      objectReference: {fileID: 0}
    - target: {fileID: 7307063430618434851, guid: 1093263a89abe47499cccf7dcb08effb, type: 3}
      propertyPath: m_LocalRotation.y
      value: -0
      objectReference: {fileID: 0}
    - target: {fileID: 7307063430618434851, guid: 1093263a89abe47499cccf7dcb08effb, type: 3}
      propertyPath: m_LocalRotation.z
      value: -0
      objectReference: {fileID: 0}
    - target: {fileID: 7307063430618434851, guid: 1093263a89abe47499cccf7dcb08effb, type: 3}
      propertyPath: m_LocalEulerAnglesHint.x
      value: 0
      objectReference: {fileID: 0}
    - target: {fileID: 7307063430618434851, guid: 1093263a89abe47499cccf7dcb08effb, type: 3}
      propertyPath: m_LocalEulerAnglesHint.y
      value: 0
      objectReference: {fileID: 0}
    - target: {fileID: 7307063430618434851, guid: 1093263a89abe47499cccf7dcb08effb, type: 3}
      propertyPath: m_LocalEulerAnglesHint.z
      value: 0
      objectReference: {fileID: 0}
    - target: {fileID: 7307063430618434862, guid: 1093263a89abe47499cccf7dcb08effb, type: 3}
      propertyPath: m_Name
      value: PinchSliderStyle
      objectReference: {fileID: 0}
    - target: {fileID: 7307063430620770484, guid: 1093263a89abe47499cccf7dcb08effb, type: 3}
      propertyPath: m_LocalPosition.x
      value: 0
      objectReference: {fileID: 0}
    - target: {fileID: 7307063430620770484, guid: 1093263a89abe47499cccf7dcb08effb, type: 3}
      propertyPath: m_LocalPosition.y
      value: -0.042000003
      objectReference: {fileID: 0}
    - target: {fileID: 7307063430620770484, guid: 1093263a89abe47499cccf7dcb08effb, type: 3}
      propertyPath: m_LocalRotation.x
      value: 0.7071068
      objectReference: {fileID: 0}
    - target: {fileID: 7307063430620770484, guid: 1093263a89abe47499cccf7dcb08effb, type: 3}
      propertyPath: m_LocalRotation.y
      value: -0
      objectReference: {fileID: 0}
    - target: {fileID: 7307063430758334042, guid: 1093263a89abe47499cccf7dcb08effb, type: 3}
      propertyPath: m_Name
      value: SliderThumb
      objectReference: {fileID: 0}
    - target: {fileID: 7307063430758334045, guid: 1093263a89abe47499cccf7dcb08effb, type: 3}
      propertyPath: m_LocalRotation.w
      value: 1
      objectReference: {fileID: 0}
    - target: {fileID: 7307063430758334045, guid: 1093263a89abe47499cccf7dcb08effb, type: 3}
      propertyPath: m_LocalRotation.z
      value: 0
      objectReference: {fileID: 0}
    - target: {fileID: 7307063430758334045, guid: 1093263a89abe47499cccf7dcb08effb, type: 3}
      propertyPath: m_LocalEulerAnglesHint.z
      value: 0
      objectReference: {fileID: 0}
    - target: {fileID: 7307063430864003802, guid: 1093263a89abe47499cccf7dcb08effb, type: 3}
      propertyPath: m_LocalPosition.x
      value: 0
      objectReference: {fileID: 0}
    - target: {fileID: 7307063430864003802, guid: 1093263a89abe47499cccf7dcb08effb, type: 3}
      propertyPath: m_LocalPosition.y
      value: -0.021000002
      objectReference: {fileID: 0}
    - target: {fileID: 7307063430864003802, guid: 1093263a89abe47499cccf7dcb08effb, type: 3}
      propertyPath: m_LocalRotation.w
      value: 0.7071068
      objectReference: {fileID: 0}
    - target: {fileID: 7307063430864003802, guid: 1093263a89abe47499cccf7dcb08effb, type: 3}
      propertyPath: m_LocalRotation.x
      value: 0.7071068
      objectReference: {fileID: 0}
    - target: {fileID: 7307063430864003802, guid: 1093263a89abe47499cccf7dcb08effb, type: 3}
      propertyPath: m_LocalRotation.y
      value: -0
      objectReference: {fileID: 0}
    - target: {fileID: 7307063431224911630, guid: 1093263a89abe47499cccf7dcb08effb, type: 3}
      propertyPath: m_LocalPosition.x
      value: 0
      objectReference: {fileID: 0}
    - target: {fileID: 7307063431224911630, guid: 1093263a89abe47499cccf7dcb08effb, type: 3}
      propertyPath: m_LocalPosition.y
      value: -0.105
      objectReference: {fileID: 0}
    - target: {fileID: 7307063431224911630, guid: 1093263a89abe47499cccf7dcb08effb, type: 3}
      propertyPath: m_LocalRotation.x
      value: 0.7071068
      objectReference: {fileID: 0}
    - target: {fileID: 7307063431224911630, guid: 1093263a89abe47499cccf7dcb08effb, type: 3}
      propertyPath: m_LocalRotation.y
      value: -0
      objectReference: {fileID: 0}
    - target: {fileID: 7307063431249240942, guid: 1093263a89abe47499cccf7dcb08effb, type: 3}
      propertyPath: m_LocalPosition.x
      value: 0
      objectReference: {fileID: 0}
    - target: {fileID: 7307063431249240942, guid: 1093263a89abe47499cccf7dcb08effb, type: 3}
      propertyPath: m_LocalPosition.y
      value: 0.105
      objectReference: {fileID: 0}
    - target: {fileID: 7307063431249240942, guid: 1093263a89abe47499cccf7dcb08effb, type: 3}
      propertyPath: m_LocalRotation.x
      value: -0.7071068
      objectReference: {fileID: 0}
    - target: {fileID: 7307063431249240942, guid: 1093263a89abe47499cccf7dcb08effb, type: 3}
      propertyPath: m_LocalRotation.y
      value: -0
      objectReference: {fileID: 0}
    - target: {fileID: 7307063431327029221, guid: 1093263a89abe47499cccf7dcb08effb, type: 3}
      propertyPath: m_LocalRotation.w
      value: 0.7071068
      objectReference: {fileID: 0}
    - target: {fileID: 7307063431327029221, guid: 1093263a89abe47499cccf7dcb08effb, type: 3}
      propertyPath: m_LocalRotation.x
      value: 0
      objectReference: {fileID: 0}
    - target: {fileID: 7307063431327029221, guid: 1093263a89abe47499cccf7dcb08effb, type: 3}
      propertyPath: m_LocalRotation.y
      value: 0
      objectReference: {fileID: 0}
    - target: {fileID: 7307063431327029221, guid: 1093263a89abe47499cccf7dcb08effb, type: 3}
      propertyPath: m_LocalRotation.z
      value: 0.7071068
      objectReference: {fileID: 0}
    - target: {fileID: 7307063431327029221, guid: 1093263a89abe47499cccf7dcb08effb, type: 3}
      propertyPath: m_LocalEulerAnglesHint.z
      value: 90
      objectReference: {fileID: 0}
    m_RemovedComponents: []
    m_RemovedGameObjects: []
    m_AddedGameObjects:
    - targetCorrespondingSourceObject: {fileID: 7307063430758334045, guid: 1093263a89abe47499cccf7dcb08effb, type: 3}
      insertIndex: -1
      addedObject: {fileID: 2150932971217955896}
    - targetCorrespondingSourceObject: {fileID: 7307063430758334045, guid: 1093263a89abe47499cccf7dcb08effb, type: 3}
      insertIndex: -1
      addedObject: {fileID: 2287485319926575610}
    m_AddedComponents: []
  m_SourcePrefab: {fileID: 100100000, guid: 1093263a89abe47499cccf7dcb08effb, type: 3}
--- !u!95 &8027688134963140085 stripped
Animator:
  m_CorrespondingSourceObject: {fileID: 7307063430522344681, guid: 1093263a89abe47499cccf7dcb08effb, type: 3}
  m_PrefabInstance: {fileID: 725067077010882844}
  m_PrefabAsset: {fileID: 0}
--- !u!4 &8027688136874688321 stripped
Transform:
  m_CorrespondingSourceObject: {fileID: 7307063430758334045, guid: 1093263a89abe47499cccf7dcb08effb, type: 3}
  m_PrefabInstance: {fileID: 725067077010882844}
  m_PrefabAsset: {fileID: 0}
