%YAML 1.1
%TAG !u! tag:unity3d.com,2011:
--- !u!78 &1
TagManager:
  serializedVersion: 2
  tags:
  - HelpObject
  - LHand
  - RHand
  - node
  - link
  - repulse
  - debug
  - ExperienceOrigin
  - Ball
  - MainContent
  - PlayerController
  - brick
  - DebugText
  - IndexTip
  - StringManager
  - ServerInfo
  - LogInfo
  - OVR
  - OVRHead
  - SpatialAnchorManager
  - Snappable
  - SnapSource
  - MixedRealityPlayspace
  - CalibrationManager
  - SceneGeometry
  - ExperiencePanel
  - EvaluationManager
  - NDISender
  - BibcamVideoPlayer
  - PhotonNetworkManager
  - ixJumpPointManager
  - SceneRoot
  - SamplesInfoPanel
  - Exterior
  - TeachingContent
  layers:
  - Default
  - TransparentFX
  - Ignore Raycast
  - 
  - Water
  - UI
  - left
  - right
  - 
  - 
  - 
  - 
  - 
  - 
  - 
  - 
  - tagInvisibleToZED
  - 
  - 
  - 
  - 
  - 
  - 
  - 
  - 
  - 
  - 
  - 
  - 
  - 
  - arlayer
  - 
  m_SortingLayers:
  - name: Default
    uniqueID: 0
    locked: 0
